module backend

go 1.20

require (
	github.com/gin-gonic/gin v1.9.1
	github.com/golang-migrate/migrate/v4 v4.16.2
	github.com/google/wire v0.5.0
	gorm.io/driver/postgres v1.5.2
	gorm.io/gorm v1.25.2
)

require (
	github.com/bytedance/sonic v1.10.0-rc3 // indirect
	github.com/chenzhuoyu/base64x v0.0.0-20230717121745-296ad89f973d // indirect
	github.com/chenzhuoyu/iasm v0.9.0 // indirect
	github.com/gabriel-vasile/mimetype v1.4.2 // indirect
	github.com/gin-contrib/sse v0.1.0 // indirect
	github.com/go-playground/locales v0.14.1 // indirect
	github.com/go-playground/universal-translator v0.18.1 // indirect
	github.com/go-playground/validator/v10 v10.14.1 // indirect
	github.com/goccy/go-json v0.10.2 // indirect
	github.com/google/subcommands v1.0.1 // indirect
	github.com/hashicorp/errwrap v1.1.0 // indirect
	github.com/hashicorp/go-multierror v1.1.1 // indirect
	github.com/jackc/pgpassfile v1.0.0 // indirect
	github.com/jackc/pgservicefile v0.0.0-20221227161230-091c0ba34f0a // indirect
	github.com/jackc/pgx/v5 v5.4.3 // indirect
	github.com/jinzhu/inflection v1.0.0 // indirect
	github.com/jinzhu/now v1.1.5 // indirect
	github.com/json-iterator/go v1.1.12 // indirect
	github.com/klauspost/cpuid/v2 v2.2.5 // indirect
	github.com/kr/pretty v0.3.1 // indirect
	github.com/leodido/go-urn v1.2.4 // indirect
	github.com/lib/pq v1.10.2 // indirect
	github.com/mattn/go-isatty v0.0.19 // indirect
	github.com/modern-go/concurrent v0.0.0-20180306012644-bacd9c7ef1dd // indirect
	github.com/modern-go/reflect2 v1.0.2 // indirect
	github.com/pelletier/go-toml/v2 v2.0.9 // indirect
	github.com/pmezard/go-difflib v1.0.0 // indirect
	github.com/twitchyliquid64/golang-asm v0.15.1 // indirect
	github.com/ugorji/go/codec v1.2.11 // indirect
	go.uber.org/atomic v1.9.0 // indirect
	golang.org/x/arch v0.4.0 // indirect
	golang.org/x/crypto v0.12.0 // indirect
	golang.org/x/mod v0.10.0 // indirect
	golang.org/x/net v0.14.0 // indirect
	golang.org/x/sys v0.11.0 // indirect
	golang.org/x/text v0.12.0 // indirect
	golang.org/x/tools v0.9.1 // indirect
	google.golang.org/protobuf v1.31.0 // indirect
	gopkg.in/yaml.v3 v3.0.1 // indirect
)
